﻿{
  "dependencies": {
    "Microsoft.NETCore.UniversalWindowsPlatform": "5.2.4",
    "RoyT.AStar": "2.1.0"
  },
  "frameworks": {
    "uap10.0": {}
  },
  "runtimes": {
    "win10-arm": {},
    "win10-arm-aot": {},
    "win10-x86": {},
    "win10-x86-aot": {},
    "win10-x64": {},
    "win10-x64-aot": {}
  }
}